{
	"class" : {
		"squotMirror" : "jr 4/8/2021 00:48" },
	"instance" : {
		"=" : "jr 1/16/2022 19:30",
		"absorbDiff:" : "jr 12/13/2020 21:51",
		"add:toSlotOverridesOf:" : "jr 7/16/2017 12:23",
		"asSquotTrackedObjectMetadata" : "jr 7/22/2017 17:30",
		"copyIgnoredInstanceVariables:" : "jr 7/20/2017 13:36",
		"copySlotOverrides:" : "jr 7/16/2017 17:24",
		"diffTreeNodeForAdding:with:" : "jr 3/16/2019 21:21",
		"diffTreeNodeForChanging:from:to:" : "jr 3/16/2019 21:20",
		"diffTreeNodeForRemoving:with:" : "jr 3/16/2019 21:23",
		"diffTreeNodesRelativeToBase:" : "jr 2/13/2022 23:05",
		"hash" : "jr 6/13/2021 11:50",
		"ignoreInstanceVariable:in:" : "jr 7/20/2017 12:09",
		"ignoreInstanceVariables:in:" : "jr 7/20/2017 11:53",
		"ignoredInstanceVariables" : "jr 7/20/2017 11:50",
		"ignoredInstanceVariablesIn:" : "jr 7/20/2017 11:46",
		"initializeInstVarNamed:of:with:" : "jr 7/16/2017 12:23",
		"materializer" : "jr 7/16/2017 12:27",
		"materializer:" : "jr 7/16/2017 12:28",
		"mergeWith:" : "jr 12/13/2020 22:53",
		"objectClass:" : "jr 7/16/2017 12:28",
		"objectClassName" : "jr 4/19/2021 19:49",
		"postCopy" : "jr 8/10/2017 19:19",
		"replaceObjectNamesWithProperReferences" : "jr 12/16/2020 01:36",
		"replaceObjectNamesWithReferencesInDictionaryKeys:" : "jr 12/16/2020 01:39",
		"replaceObjectReferencesByNamesInDictionaryKeys:" : "jr 12/16/2020 01:38",
		"replaceObjectReferencesByTheirNames" : "jr 12/16/2020 01:37",
		"serializer" : "jr 7/16/2017 12:27",
		"serializer:" : "jr 7/16/2017 12:28",
		"slotOverrideFor:in:ifFound:ifNone:" : "jr 7/16/2017 13:50",
		"slotOverrides" : "jr 7/16/2017 12:21",
		"squotDiffAgainst:" : "jr 2/13/2022 17:00",
		"squotMergeWith:basedOn:" : "jr 2/13/2022 16:38",
		"updateFrom:" : "jr 12/13/2020 21:51" } }
