{
	"class" : {
		 },
	"instance" : {
		"activateDuring:" : "jr 2/29/2020 20:58",
		"addRemote:" : "jr 12/1/2018 23:35",
		"allObjects" : "jr 4/20/2020 21:19",
		"allReferencesDo:" : "jr 2/16/2020 01:16",
		"allReferencesPrefixedWith:do:" : "jr 2/16/2020 01:19",
		"allShortenedRefsIn:" : "jr 4/29/2020 23:51",
		"basicUpdateRef:to:" : "jr 5/1/2020 19:58",
		"branchNamed:" : "jr 3/3/2020 00:21",
		"branchNames" : "jr 4/29/2020 23:49",
		"branches" : "jr 6/5/2017 21:55",
		"configAt:" : "jr 2/12/2020 22:11",
		"configAt:ifAbsent:" : "jr 7/22/2020 22:10",
		"configAt:put:" : "jr 12/13/2020 23:52",
		"configI18nCommitEncoding" : "jr 6/3/2017 11:38",
		"configI18nCommitEncoding:" : "jr 6/3/2017 12:09",
		"configSectionLabelFromParts:" : "jr 8/25/2020 15:46",
		"configSubkeysAt:" : "jr 8/25/2020 15:47",
		"configSubsetWithPrefix:" : "jr 8/25/2020 15:52",
		"configUnsetAt:" : "jr 12/13/2020 23:52",
		"deleteRef:" : "jr 5/1/2020 19:42",
		"ensureConfigOr:" : "jr 7/22/2020 22:09",
		"errorObjectNotFound:" : "jr 2/12/2020 22:27",
		"expandRef:" : "jr 4/30/2020 01:51",
		"fetchSpecOfTrackingBranch:" : "jr 5/27/2018 21:18",
		"finish" : "jr 4/17/2020 12:19",
		"flushCaches" : "jr 3/10/2020 22:03",
		"followSymbolicRefs:" : "jr 2/16/2020 00:35",
		"followSymbolicRefs:do:" : "jr 4/30/2020 00:59",
		"hasLooseObject:" : "jr 2/17/2020 22:33",
		"hasObject:" : "jr 2/12/2020 22:19",
		"hasWorkingCopy" : "jr 5/17/2017 17:59",
		"head" : "CamilloBruni 9/2/2012 11:19",
		"headIfAbsent:" : "CamilloBruni 9/2/2012 11:21",
		"headRef" : "MaxLeske 8/11/2011 21:23",
		"headerOfObjectNamed:" : "jr 3/7/2017 13:35",
		"headerOfObjectNamed:ifAbsent:" : "jr 2/12/2020 23:36",
		"initialize" : "jr 3/10/2020 21:24",
		"initializeCaches" : "jr 5/1/2020 22:40",
		"loadObjectNamed:" : "jr 2/12/2020 23:38",
		"nameOf:in:" : "jr 3/1/2020 01:47",
		"objectCache" : "jr 4/20/2020 21:19",
		"objectNamed:" : "jr 4/20/2020 21:19",
		"objectNamed:ifAbsent:" : "jr 2/12/2020 22:30",
		"objectReferenced:" : "jr 1/30/2017 19:39",
		"objectStores" : "jr 2/12/2020 23:13",
		"objectStores:" : "jr 4/6/2020 22:42",
		"pack" : "jr 2/12/2020 23:43",
		"packsDir" : "jr 3/5/2020 01:01",
		"printOn:" : "jr 3/4/2020 23:58",
		"ref:" : "jr 5/1/2020 19:39",
		"refExists:" : "jr 5/1/2020 20:33",
		"refName:forRemote:" : "jr 2/12/2020 22:54",
		"refStores" : "jr 2/12/2020 23:13",
		"refStores:" : "jr 4/6/2020 22:42",
		"refTo:" : "jr 1/12/2017 16:21",
		"reflogForReference:" : "jr 2/13/2020 00:04",
		"remoteConfigFor:option:" : "jr 2/12/2020 22:39",
		"remoteConfigFor:option:set:" : "jr 2/12/2020 22:39",
		"remoteNamed:" : "jr 5/27/2018 21:10",
		"remoteNames" : "jr 7/22/2020 22:02",
		"remoteUrl:" : "jr 4/13/2017 22:46",
		"removeRemoteNamed:" : "jr 4/13/2017 23:23",
		"repository" : "jr 2/15/2020 22:28",
		"repository:" : "jr 2/15/2020 22:28",
		"resolveRef:" : "jr 5/1/2020 22:21",
		"setUpstreamOfBranchNamed:toTrackedBranchOf:" : "jr 5/27/2018 21:27",
		"setUpstreamRefOfBranchNamed:to:" : "jr 2/12/2020 22:54",
		"setUpstreamRemoteOfBranchNamed:to:" : "jr 4/26/2017 13:50",
		"sizeOfObjectNamed:" : "jr 3/7/2017 13:35",
		"storeLooseObject:" : "jr 2/17/2020 22:45",
		"storeObject:" : "jr 4/20/2020 21:19",
		"streamObjectNamed:" : "jr 2/13/2020 00:25",
		"tagNamed:" : "Camillobruni 8/18/2011 16:53",
		"tagNamed:ifAbsent:" : "jr 9/10/2021 20:28",
		"tagNames" : "jr 4/29/2020 23:49",
		"tags" : "jr 4/30/2020 00:03",
		"unitOfWork" : "jr 2/23/2020 23:13",
		"unsetUpstreamOfBranchNamed:" : "jr 7/20/2020 13:10",
		"updateHeadToBranch:" : "jr 5/14/2021 21:23",
		"updateHeadToRef:message:" : "jr 5/14/2021 21:22",
		"updateRef:ofRemote:to:message:" : "jr 4/5/2017 12:27",
		"updateRef:to:" : "jr 4/30/2020 01:38",
		"updateRef:to:message:" : "jr 11/18/2021 21:54",
		"upstreamRefOfBranchNamed:" : "jr 4/26/2017 22:59",
		"upstreamRemoteOfBranchNamed:" : "jr 4/26/2017 13:49",
		"validate" : "CamilloBruni 8/9/2011 16:58",
		"workingCopyDir" : "jr 8/25/2020 15:54",
		"workingCopyDirDo:ifBare:" : "jr 3/4/2020 01:05",
		"workingCopyDirDo:ifBareOrAbsent:" : "jr 3/4/2020 01:04",
		"workingDir" : "jr 2/12/2020 23:00" } }
