{
	"class" : {
		"addPackageAndClassDirectoryForClass:to:" : "jr 9/20/2017 21:05",
		"addPackageDirectoryForPackage:to:" : "jr 9/20/2017 21:01",
		"rewritePath:for:" : "jr 1/25/2017 17:23",
		"rewritePath:ofClass:" : "jr 9/20/2017 21:04",
		"rewritePath:ofPackage:" : "jr 3/17/2019 00:19",
		"userFriendlyTitle" : "jr 3/16/2019 15:52" },
	"instance" : {
		"canWriteDiffs" : "jr 11/20/2021 15:06",
		"delete:" : "jr 11/20/2021 15:40",
		"deleteClassifier:" : "jr 11/20/2021 12:27",
		"deleteExtension:" : "jr 11/20/2021 12:42",
		"deleteMethod:" : "jr 11/20/2021 11:46",
		"deleteScript:" : "jr 11/20/2021 20:11",
		"directory" : "jr 1/17/2017 14:24",
		"initialize" : "jr 2/26/2017 13:55",
		"initializeFileTreeWritersInPackageDirectory:" : "jr 2/26/2017 13:56",
		"propertiesFileContents" : "jr 9/3/2020 22:47",
		"propertyFileExtension" : "jr 1/17/2017 15:19",
		"version" : "jr 1/15/2017 19:07",
		"write:" : "jr 5/9/2017 18:24",
		"writeClass:" : "jr 9/3/2020 22:48",
		"writeDefinitions:" : "jr 1/29/2017 21:08",
		"writeDiff:" : "jr 1/16/2022 16:03",
		"writeMCSnapshot:forPackageNamed:from:" : "jr 3/16/2019 23:35",
		"writePackage:" : "jr 9/3/2020 22:47",
		"writePropertiesIfExists" : "jr 9/3/2020 22:47" } }
