{
	"class" : {
		 },
	"instance" : {
		"applyToWorkingCopy" : "jr 11/19/2020 15:09",
		"diffAt:in:" : "jr 8/15/2019 03:02",
		"hasChangesAt:in:" : "jr 11/19/2020 19:20",
		"includesDiffAt:in:" : "jr 8/15/2019 01:22",
		"loadOrderHasChanges" : "jr 11/3/2020 16:44",
		"mergeWithMetadataConflictAt:" : "jr 1/16/2022 20:15",
		"newToolOn:" : "jr 5/2/2020 01:49",
		"openToolAndTestOnPatch:" : "jr 8/15/2019 00:51",
		"patchAddingArtifactAt:" : "jr 8/14/2019 22:59",
		"patchChangingArtifactAt:" : "jr 11/22/2020 18:08",
		"patchChangingUnloadedArtifactAt:" : "jr 11/19/2020 16:24",
		"patchRemovingArtifactAt:" : "jr 8/15/2019 00:35",
		"patchWithLoadOrderChange" : "jr 8/15/2019 01:01",
		"patchWithLoadOrderChangeRegression1" : "jr 8/15/2019 01:11",
		"patchWithTwoChangedArtifacts" : "jr 8/22/2019 00:03",
		"patchWithUnloadedArtifactAt:" : "jr 11/19/2020 14:43",
		"patchedLoadOrderAfter:" : "jr 8/15/2019 01:08",
		"performUiInteractionTestsOnNode:withPath:inTree:" : "jr 11/1/2020 21:23",
		"resolveArtifactConflict:" : "jr 10/26/2019 22:39",
		"resultDiffAt:" : "jr 8/15/2019 03:02",
		"resultLoadOrder" : "jr 8/15/2019 01:06",
		"testLoadOrderConflicts" : "jr 11/18/2020 16:01",
		"testMetadataConflict" : "jr 1/16/2022 21:34",
		"testResolveArtifactConflictChooseLeft" : "jr 11/18/2020 16:03",
		"testResolveArtifactConflictChooseRight" : "jr 11/18/2020 16:03",
		"testResolveArtifactConflictWithIncomingRemoval" : "jr 11/18/2020 16:03",
		"testResolveConflictInArtifactChooseLeft" : "jr 11/19/2020 19:12",
		"testResolveConflictInArtifactChooseRight" : "jr 5/9/2020 10:39",
		"testResolveThenResetArtifactConflict" : "jr 11/18/2020 17:14",
		"testSmalltalkCodeMerge" : "jr 9/29/2019 22:39" } }
