{
	"class" : {
		"themeProperties" : "jr 10/14/2018 00:52" },
	"instance" : {
		"accept" : "jr 5/22/2020 15:51",
		"actionCommit" : "fn 4/11/2017 16:01",
		"activateNodeCommandLabel" : "jr 4/7/2019 22:30",
		"addUnloadedArtifactMenuItems:" : "jr 10/4/2020 18:45",
		"appendCoAuthors" : "ms 3/15/2019 11:53",
		"browseOtherEdition" : "jr 6/6/2020 01:04",
		"browseOtherEditionLabel" : "jr 6/6/2020 00:48",
		"buildButtonBar:" : "jr 11/18/2018 01:39",
		"buildCoAuthorSelector:" : "jr 12/22/2021 13:10",
		"buildDiffPane:" : "jr 11/18/2018 01:33",
		"cancel" : "jr 11/18/2018 00:44",
		"coAuthorString" : "ms 3/15/2019 11:53",
		"createRootNodes" : "jr 2/13/2022 23:41",
		"deactivateNodeCommandLabel" : "jr 4/7/2019 22:29",
		"defaultMessage" : "jr 10/14/2018 01:24",
		"excludeMethodsThatAreAssumedUnchanged:" : "jr 2/13/2022 23:41",
		"excludeMethodsWithOnlyTimestampChanges:" : "jr 2/13/2022 23:41",
		"excludePackagesWithoutActiveChanges:" : "jr 2/13/2022 23:43",
		"initialize" : "jr 11/18/2018 00:50",
		"inspectOriginalArtifactCommandLabel" : "jr 11/18/2018 01:05",
		"message" : "jr 2/17/2017 17:03",
		"message:" : "jr 2/17/2017 17:03",
		"messageWasChanged" : "jr 11/17/2018 23:19",
		"parentVersions:" : "jr 2/17/2017 19:34",
		"toggleLoadSelectedNode" : "jr 10/4/2020 17:54",
		"updateMessageFromViews" : "jr 10/14/2018 01:30",
		"widgetSpecs:" : "jr 12/22/2021 13:09",
		"windowLabel" : "jr 11/18/2018 01:29" } }
