{
	"class" : {
		 },
	"instance" : {
		"expectedFailures" : "jr 8/8/2021 16:55",
		"newRepository" : "jr 2/4/2017 01:58",
		"testImmutabilityOfSnapshots" : "jr 1/26/2020 22:58",
		"testVersionsDoNotContainWorkingCopyArtifacts" : "jr 11/18/2020 21:35" } }
