{
	"class" : {
		 },
	"instance" : {
		"initializePackage" : "jr 1/20/2022 23:03",
		"packagePath" : "jr 5/4/2019 01:56",
		"savePackage" : "jr 1/20/2022 23:03",
		"setUp" : "jr 5/4/2019 02:01",
		"tearDown" : "jr 12/23/2019 17:10",
		"testPackageTrackedAutomaticallyOnLoad" : "jr 5/4/2019 02:03",
		"testSwitchAndMoveOverDoesNotDiscardChangesToUntrackedPackage" : "jr 1/20/2022 20:47",
		"testSwitchDoesNotDiscardChangesToUntrackedPackage" : "jr 1/22/2022 13:43",
		"trackPackage" : "jr 1/20/2022 23:17" } }
